^C:\USERS\ANDYK\SOURCE\REPOS\UNIEVENTSCHEDULER\UNIEVENTSCHEDULER\DEBUG\DATA.OBJ|C:\USERS\ANDYK\SOURCE\REPOS\UNIEVENTSCHEDULER\UNIEVENTSCHEDULER\DEBUG\UNIEVENTSCHEDULER.OBJ|C:\USERS\ANDYK\SOURCE\REPOS\UNIEVENTSCHEDULER\UNIEVENTSCHEDULER\DEBUG\UNITERMIN.OBJ
C:\USERS\ANDYK\SOURCE\REPOS\UNIEVENTSCHEDULER\DEBUG\UNIEVENTSCHEDULER.EXE
C:\USERS\ANDYK\SOURCE\REPOS\UNIEVENTSCHEDULER\DEBUG\UNIEVENTSCHEDULER.ILK
C:\USERS\ANDYK\SOURCE\REPOS\UNIEVENTSCHEDULER\DEBUG\UNIEVENTSCHEDULER.PDB
