^C:\USERS\ANDYK\DESKTOP\UNIEVENTSCHEDULER\X64\RELEASE\DATA.OBJ|C:\USERS\ANDYK\DESKTOP\UNIEVENTSCHEDULER\X64\RELEASE\UNIEVENTSCHEDULER.OBJ|C:\USERS\ANDYK\DESKTOP\UNIEVENTSCHEDULER\X64\RELEASE\UNITERMIN.OBJ
/OUT:"C:\USERS\ANDYK\DESKTOP\UNIEVENTSCHEDULER\X64\RELEASE\UNIEVENTSCHEDULER.EXE" /INCREMENTAL:NO /NOLOGO KERNEL32.LIB USER32.LIB GDI32.LIB WINSPOOL.LIB COMDLG32.LIB ADVAPI32.LIB SHELL32.LIB OLE32.LIB OLEAUT32.LIB UUID.LIB ODBC32.LIB ODBCCP32.LIB /MANIFEST /MANIFESTUAC:"level='asInvoker' uiAccess='false'" /manifest:embed /DEBUG /PDB:"C:\USERS\ANDYK\DESKTOP\UNIEVENTSCHEDULER\X64\RELEASE\UNIEVENTSCHEDULER.PDB" /SUBSYSTEM:CONSOLE /OPT:REF /OPT:ICF /LTCG:incremental /TLBID:1 /DYNAMICBASE /NXCOMPAT /IMPLIB:"C:\USERS\ANDYK\DESKTOP\UNIEVENTSCHEDULER\X64\RELEASE\UNIEVENTSCHEDULER.LIB" /MACHINE:X64 X64\RELEASE\DATA.OBJ
X64\RELEASE\UNIEVENTSCHEDULER.OBJ
X64\RELEASE\UNITERMIN.OBJ
