^C:\USERS\ANDYK\SOURCE\REPOS\UNIEVENTSCHEDULER\UNIEVENTSCHEDULER\UNITERMIN.CPP
/c /ZI /JMC /nologo /W3 /WX- /diagnostics:column /sdl /Od /Oy- /D WIN32 /D _DEBUG /D _CONSOLE /D _CRT_SECURE_NO_WARNINGS /D _UNICODE /D UNICODE /Gm- /EHsc /RTC1 /MDd /GS /fp:precise /permissive- /Zc:wchar_t /Zc:forScope /Zc:inline /Fo"DEBUG\\" /Fd"DEBUG\VC142.PDB" /Gd /TP /analyze- /FC C:\USERS\ANDYK\SOURCE\REPOS\UNIEVENTSCHEDULER\UNIEVENTSCHEDULER\UNITERMIN.CPP
^C:\USERS\ANDYK\SOURCE\REPOS\UNIEVENTSCHEDULER\UNIEVENTSCHEDULER\DATA.CPP
/c /ZI /JMC /nologo /W3 /WX- /diagnostics:column /sdl /Od /Oy- /D WIN32 /D _DEBUG /D _CONSOLE /D _CRT_SECURE_NO_WARNINGS /D _UNICODE /D UNICODE /Gm- /EHsc /RTC1 /MDd /GS /fp:precise /permissive- /Zc:wchar_t /Zc:forScope /Zc:inline /Fo"DEBUG\\" /Fd"DEBUG\VC142.PDB" /Gd /TP /analyze- /FC C:\USERS\ANDYK\SOURCE\REPOS\UNIEVENTSCHEDULER\UNIEVENTSCHEDULER\DATA.CPP
^C:\USERS\ANDYK\SOURCE\REPOS\UNIEVENTSCHEDULER\UNIEVENTSCHEDULER\UNIEVENTSCHEDULER.CPP
/c /ZI /JMC /nologo /W3 /WX- /diagnostics:column /sdl /Od /Oy- /D WIN32 /D _DEBUG /D _CONSOLE /D _CRT_SECURE_NO_WARNINGS /D _UNICODE /D UNICODE /Gm- /EHsc /RTC1 /MDd /GS /fp:precise /permissive- /Zc:wchar_t /Zc:forScope /Zc:inline /Fo"DEBUG\\" /Fd"DEBUG\VC142.PDB" /Gd /TP /analyze- /FC C:\USERS\ANDYK\SOURCE\REPOS\UNIEVENTSCHEDULER\UNIEVENTSCHEDULER\UNIEVENTSCHEDULER.CPP
^E:\ONEDRIVE\4.SEMESTER\UNIEVENTSCHEDULER\DATA.CPP
/c /ZI /JMC /nologo /W3 /WX- /diagnostics:column /sdl /Od /Oy- /D WIN32 /D _DEBUG /D _CONSOLE /D _CRT_SECURE_NO_WARNINGS /D _UNICODE /D UNICODE /Gm- /EHsc /RTC1 /MDd /GS /fp:precise /permissive- /Zc:wchar_t /Zc:forScope /Zc:inline /Fo"DEBUG\\" /Fd"DEBUG\VC142.PDB" /Gd /TP /analyze- /FC E:\ONEDRIVE\4.SEMESTER\UNIEVENTSCHEDULER\DATA.CPP
^E:\ONEDRIVE\4.SEMESTER\UNIEVENTSCHEDULER\UNITERMIN.CPP
/c /ZI /JMC /nologo /W3 /WX- /diagnostics:column /sdl /Od /Oy- /D WIN32 /D _DEBUG /D _CONSOLE /D _CRT_SECURE_NO_WARNINGS /D _UNICODE /D UNICODE /Gm- /EHsc /RTC1 /MDd /GS /fp:precise /permissive- /Zc:wchar_t /Zc:forScope /Zc:inline /Fo"DEBUG\\" /Fd"DEBUG\VC142.PDB" /Gd /TP /analyze- /FC E:\ONEDRIVE\4.SEMESTER\UNIEVENTSCHEDULER\UNITERMIN.CPP
^E:\ONEDRIVE\4.SEMESTER\UNIEVENTSCHEDULER\THREADS.CPP
/c /ZI /JMC /nologo /W3 /WX- /diagnostics:column /sdl /Od /Oy- /D WIN32 /D _DEBUG /D _CONSOLE /D _CRT_SECURE_NO_WARNINGS /D _UNICODE /D UNICODE /Gm- /EHsc /RTC1 /MDd /GS /fp:precise /permissive- /Zc:wchar_t /Zc:forScope /Zc:inline /Fo"DEBUG\\" /Fd"DEBUG\VC142.PDB" /Gd /TP /analyze- /FC E:\ONEDRIVE\4.SEMESTER\UNIEVENTSCHEDULER\THREADS.CPP
^E:\ONEDRIVE\4.SEMESTER\UNIEVENTSCHEDULER\UNIEVENTSCHEDULER.CPP
/c /ZI /JMC /nologo /W3 /WX- /diagnostics:column /sdl /Od /Oy- /D WIN32 /D _DEBUG /D _CONSOLE /D _CRT_SECURE_NO_WARNINGS /D _UNICODE /D UNICODE /Gm- /EHsc /RTC1 /MDd /GS /fp:precise /permissive- /Zc:wchar_t /Zc:forScope /Zc:inline /Fo"DEBUG\\" /Fd"DEBUG\VC142.PDB" /Gd /TP /analyze- /FC E:\ONEDRIVE\4.SEMESTER\UNIEVENTSCHEDULER\UNIEVENTSCHEDULER.CPP
^C:\USERS\ANDYK\DESKTOP\UNIEVENTSCHEDULER\DATA.CPP
/c /ZI /JMC /nologo /W3 /WX- /diagnostics:column /sdl /Od /Oy- /D WIN32 /D _DEBUG /D _CONSOLE /D _CRT_SECURE_NO_WARNINGS /D _UNICODE /D UNICODE /Gm- /EHsc /RTC1 /MDd /GS /fp:precise /permissive- /Zc:wchar_t /Zc:forScope /Zc:inline /Fo"DEBUG\\" /Fd"DEBUG\VC142.PDB" /Gd /TP /analyze- /FC C:\USERS\ANDYK\DESKTOP\UNIEVENTSCHEDULER\DATA.CPP
^C:\USERS\ANDYK\DESKTOP\UNIEVENTSCHEDULER\THREADS.CPP
/c /ZI /JMC /nologo /W3 /WX- /diagnostics:column /sdl /Od /Oy- /D WIN32 /D _DEBUG /D _CONSOLE /D _CRT_SECURE_NO_WARNINGS /D _UNICODE /D UNICODE /Gm- /EHsc /RTC1 /MDd /GS /fp:precise /permissive- /Zc:wchar_t /Zc:forScope /Zc:inline /Fo"DEBUG\\" /Fd"DEBUG\VC142.PDB" /Gd /TP /analyze- /FC C:\USERS\ANDYK\DESKTOP\UNIEVENTSCHEDULER\THREADS.CPP
^C:\USERS\ANDYK\DESKTOP\UNIEVENTSCHEDULER\UNITERMIN.CPP
/c /ZI /JMC /nologo /W3 /WX- /diagnostics:column /sdl /Od /Oy- /D WIN32 /D _DEBUG /D _CONSOLE /D _CRT_SECURE_NO_WARNINGS /D _UNICODE /D UNICODE /Gm- /EHsc /RTC1 /MDd /GS /fp:precise /permissive- /Zc:wchar_t /Zc:forScope /Zc:inline /Fo"DEBUG\\" /Fd"DEBUG\VC142.PDB" /Gd /TP /analyze- /FC C:\USERS\ANDYK\DESKTOP\UNIEVENTSCHEDULER\UNITERMIN.CPP
^C:\USERS\ANDYK\DESKTOP\UNIEVENTSCHEDULER\UNIEVENTSCHEDULER.CPP
/c /ZI /JMC /nologo /W3 /WX- /diagnostics:column /sdl /Od /Oy- /D WIN32 /D _DEBUG /D _CONSOLE /D _CRT_SECURE_NO_WARNINGS /D _UNICODE /D UNICODE /Gm- /EHsc /RTC1 /MDd /GS /fp:precise /permissive- /Zc:wchar_t /Zc:forScope /Zc:inline /Fo"DEBUG\\" /Fd"DEBUG\VC142.PDB" /Gd /TP /analyze- /FC C:\USERS\ANDYK\DESKTOP\UNIEVENTSCHEDULER\UNIEVENTSCHEDULER.CPP
