﻿  Data.cpp
  UniEventScheduler.cpp
C:\Users\AndyK\source\repos\UniEventScheduler\UniEventScheduler\UniEventScheduler.cpp(43,16): error C4996: 'localtime': This function or variable may be unsafe. Consider using localtime_s instead. To disable deprecation, use _CRT_SECURE_NO_WARNINGS. See online help for details.
  UniTermin.cpp
