﻿  UniEventScheduler.cpp
  Code wird generiert.
  1 of 360 functions ( 0.3%) were compiled, the rest were copied from previous compilation.
    0 functions were new in current compilation
    0 functions had inline decision re-evaluated but remain unchanged
  Codegenerierung ist abgeschlossen.
  UniEventScheduler.vcxproj -> C:\Users\AndyK\source\repos\UniEventScheduler\x64\Release\UniEventScheduler.exe
